<?xml version="1.0" encoding="UTF-8"?>
<session version="1.0">
<refactoring accessors="true" comment="Delete element from project &apos;xapos259&apos;&#x0D;&#x0A;- Original project: &apos;xapos259&apos;&#x0D;&#x0A;- Original element: &apos;com.xapos259.security.service.UserDetailslmpl.java&apos;" description="Delete element" element1="/src\/main\/java=/optional=/true=/=/maven.pomderived=/true=/&lt;com.xapos259.security.service{UserDetailslmpl.java" elements="1" flags="589830" id="org.eclipse.jdt.ui.delete" resources="0" stamp="1625044605746" subPackages="false" version="1.0"/>
</session>